# compile verilog/system verilog design source files
verilog xil_defaultlib  "../../../prac3_2.srcs/sources_1/new/px_bus.v"
verilog xil_defaultlib  "../../../prac3_2.srcs/sources_1/ip/clk_wiz_0/clk_wiz_0_clk_wiz.v"
verilog xil_defaultlib  "../../../prac3_2.srcs/sources_1/ip/clk_wiz_0/clk_wiz_0.v"
verilog xil_defaultlib  "../../../prac3_2.srcs/sources_1/imports/src/user_logic.v"
verilog xil_defaultlib  "../../../prac3_2.srcs/sources_1/imports/src/resync.v"
verilog xil_defaultlib  "../../../prac3_2.srcs/sources_1/imports/src/vga_control.v"
verilog xil_defaultlib  "../../../prac3_2.srcs/sources_1/imports/src/ssd_driver.v"
verilog xil_defaultlib  "../../../prac3_2.srcs/sources_1/imports/src/frame_buffer.v"
verilog xil_defaultlib  "../../../prac3_2.srcs/sources_1/imports/src/top.v"
verilog xil_defaultlib  "../../../prac3_2.srcs/sim_1/new/tb.v"

# compile glbl module
verilog xil_defaultlib "glbl.v"

# Do not sort compile order
nosort
