Copyright 1986-2015 Xilinx, Inc. All Rights Reserved.
---------------------------------------------------------------------------------------------
| Tool Version : Vivado v.2015.2 (lin64) Build 1266856 Fri Jun 26 16:35:25 MDT 2015
| Date         : Sat Nov 14 14:57:16 2015
| Host         : glanton.inf.ed.ac.uk running 64-bit Scientific Linux release 7.1 (Nitrogen)
| Command      : report_control_sets -verbose -file top_control_sets_placed.rpt
| Design       : top
| Device       : xc7z010
---------------------------------------------------------------------------------------------

Control Set Information

Table of Contents
-----------------
1. Summary
2. Flip-Flop Distribution
3. Detailed Control Set Information

1. Summary
----------

+-------------------------------------------------------------------+-------+
|                               Status                              | Count |
+-------------------------------------------------------------------+-------+
| Number of unique control sets                                     |     7 |
| Minimum Number of register sites lost to control set restrictions |    13 |
+-------------------------------------------------------------------+-------+


2. Flip-Flop Distribution
-------------------------

+--------------+-----------------------+------------------------+-----------------+--------------+
| Clock Enable | Synchronous Set/Reset | Asynchronous Set/Reset | Total Registers | Total Slices |
+--------------+-----------------------+------------------------+-----------------+--------------+
| No           | No                    | No                     |               0 |            0 |
| No           | No                    | Yes                    |              60 |           26 |
| No           | Yes                   | No                     |               0 |            0 |
| Yes          | No                    | No                     |               0 |            0 |
| Yes          | No                    | Yes                    |              63 |           28 |
| Yes          | Yes                   | No                     |               0 |            0 |
+--------------+-----------------------+------------------------+-----------------+--------------+


3. Detailed Control Set Information
-----------------------------------

+------------------------------+----------------------------------------+------------------+------------------+----------------+
|         Clock Signal         |              Enable Signal             | Set/Reset Signal | Slice Load Count | Bel Load Count |
+------------------------------+----------------------------------------+------------------+------------------+----------------+
|  u_clk_wiz_0/inst/clk_108MHz |                                        | rst_a_IBUF       |                3 |              4 |
|  u_clk_wiz_0/inst/clk_108MHz | u_user_logic/u_px_bus/k[3]_i_1_n_0     | u_resync/reset   |                1 |              4 |
|  u_clk_wiz_0/inst/clk_108MHz | u_vga_control/s2_row_addr_r[7]_i_1_n_0 | u_resync/reset   |                2 |              8 |
|  u_clk_wiz_0/inst/clk_108MHz | u_vga_control/vc_request               | u_resync/reset   |                4 |              8 |
|  u_clk_wiz_0/inst/clk_108MHz | u_vga_control/s1_vcount_en             | u_resync/reset   |                4 |             11 |
|  u_clk_wiz_0/inst/clk_108MHz | u_user_logic/u_px_bus/px_write         | u_resync/reset   |               17 |             32 |
|  u_clk_wiz_0/inst/clk_108MHz |                                        | u_resync/reset   |               23 |             56 |
+------------------------------+----------------------------------------+------------------+------------------+----------------+


