Copyright 1986-2015 Xilinx, Inc. All Rights Reserved.
-----------------------------------------------------------------------------------------------------
| Tool Version     : Vivado v.2015.2 (lin64) Build 1266856 Fri Jun 26 16:35:25 MDT 2015
| Date             : Sat Nov 14 14:57:31 2015
| Host             : glanton.inf.ed.ac.uk running 64-bit Scientific Linux release 7.1 (Nitrogen)
| Command          : report_power -file top_power_routed.rpt -pb top_power_summary_routed.pb
| Design           : top
| Device           : xc7z010clg400-3
| Design State     : Routed
| Grade            : extended
| Process          : typical
| Characterization : Production
-----------------------------------------------------------------------------------------------------

Power Report

Table of Contents
-----------------
1. Summary
1.1 On-Chip Components
1.2 Power Supply Summary
1.3 Confidence Level
2. Settings
2.1 Environment
2.2 Clock Constraints
3. Detailed Reports
3.1 By Hierarchy

1. Summary
----------

+--------------------------+-------+
| Total On-Chip Power (W)  | 0.308 |
| Dynamic (W)              | 0.202 |
| Device Static (W)        | 0.106 |
| Effective TJA (C/W)      | 11.5  |
| Max Ambient (C)          | 96.5  |
| Junction Temperature (C) | 28.5  |
| Confidence Level         | Low   |
| Setting File             | ---   |
| Simulation Activity File | ---   |
| Design Nets Matched      | NA    |
+--------------------------+-------+


1.1 On-Chip Components
----------------------

+----------------+-----------+----------+-----------+-----------------+
| On-Chip        | Power (W) | Used     | Available | Utilization (%) |
+----------------+-----------+----------+-----------+-----------------+
| Clocks         |     0.003 |        9 |       --- |             --- |
| Slice Logic    |    <0.001 |      340 |       --- |             --- |
|   LUT as Logic |    <0.001 |      165 |     17600 |            0.94 |
|   Register     |    <0.001 |      123 |     35200 |            0.35 |
|   CARRY4       |    <0.001 |       10 |      4400 |            0.23 |
|   Others       |     0.000 |       15 |       --- |             --- |
| Signals        |    <0.001 |      339 |       --- |             --- |
| Block RAM      |     0.068 |       32 |        60 |           53.33 |
| MMCM           |     0.122 |        1 |         2 |           50.00 |
| DSPs           |     0.001 |        3 |        80 |            3.75 |
| I/O            |     0.007 |       39 |       100 |           39.00 |
| Static Power   |     0.106 |          |           |                 |
| Total          |     0.308 |          |           |                 |
+----------------+-----------+----------+-----------+-----------------+


1.2 Power Supply Summary
------------------------

+-----------+-------------+-----------+-------------+------------+
| Source    | Voltage (V) | Total (A) | Dynamic (A) | Static (A) |
+-----------+-------------+-----------+-------------+------------+
| Vccint    |       1.000 |     0.072 |       0.067 |      0.004 |
| Vccaux    |       1.800 |     0.079 |       0.068 |      0.011 |
| Vcco33    |       3.300 |     0.003 |       0.002 |      0.001 |
| Vcco25    |       2.500 |     0.000 |       0.000 |      0.000 |
| Vcco18    |       1.800 |     0.000 |       0.000 |      0.000 |
| Vcco15    |       1.500 |     0.000 |       0.000 |      0.000 |
| Vcco135   |       1.350 |     0.000 |       0.000 |      0.000 |
| Vcco12    |       1.200 |     0.000 |       0.000 |      0.000 |
| Vccaux_io |       1.800 |     0.000 |       0.000 |      0.000 |
| Vccbram   |       1.000 |     0.007 |       0.006 |      0.001 |
| MGTAVcc   |       1.000 |     0.000 |       0.000 |      0.000 |
| MGTAVtt   |       1.200 |     0.000 |       0.000 |      0.000 |
| MGTVccaux |       1.800 |     0.000 |       0.000 |      0.000 |
| Vccpint   |       1.000 |     0.018 |       0.000 |      0.018 |
| Vccpaux   |       1.800 |     0.010 |       0.000 |      0.010 |
| Vccpll    |       1.800 |     0.003 |       0.000 |      0.003 |
| Vcco_ddr  |       1.500 |     0.000 |       0.000 |      0.000 |
| Vcco_mio0 |       1.800 |     0.000 |       0.000 |      0.000 |
| Vcco_mio1 |       1.800 |     0.000 |       0.000 |      0.000 |
| Vccadc    |       1.800 |     0.020 |       0.000 |      0.020 |
+-----------+-------------+-----------+-------------+------------+


1.3 Confidence Level
--------------------

+-----------------------------+------------+--------------------------------------------------------+------------------------------------------------------------------------------------------------------------+
| User Input Data             | Confidence | Details                                                | Action                                                                                                     |
+-----------------------------+------------+--------------------------------------------------------+------------------------------------------------------------------------------------------------------------+
| Design implementation state | High       | Design is routed                                       |                                                                                                            |
| Clock nodes activity        | High       | User specified more than 95% of clocks                 |                                                                                                            |
| I/O nodes activity          | Low        | More than 75% of inputs are missing user specification | Provide missing input activity with simulation results or by editing the "By Resource Type -> I/Os" view   |
| Internal nodes activity     | Medium     | User specified less than 25% of internal nodes         | Provide missing internal nodes activity with simulation results or by editing the "By Resource Type" views |
| Device models               | High       | Device models are Production                           |                                                                                                            |
|                             |            |                                                        |                                                                                                            |
| Overall confidence level    | Low        |                                                        |                                                                                                            |
+-----------------------------+------------+--------------------------------------------------------+------------------------------------------------------------------------------------------------------------+


2. Settings
-----------

2.1 Environment
---------------

+-----------------------+------------------------+
| Ambient Temp (C)      | 25.0                   |
| ThetaJA (C/W)         | 11.5                   |
| Airflow (LFM)         | 250                    |
| Heat Sink             | none                   |
| ThetaSA (C/W)         | 0.0                    |
| Board Selection       | medium (10"x10")       |
| # of Board Layers     | 8to11 (8 to 11 Layers) |
| Board Temperature (C) | 25.0                   |
+-----------------------+------------------------+


2.2 Clock Constraints
---------------------

+------------------------+---------------------------------------+-----------------+
| Clock                  | Domain                                | Constraint (ns) |
+------------------------+---------------------------------------+-----------------+
| clk_108MHz_clk_wiz_0   | u_clk_wiz_0/inst/clk_108MHz           |             9.3 |
| clk_108MHz_clk_wiz_0   | u_clk_wiz_0/inst/clk_108MHz_clk_wiz_0 |             9.3 |
| clk_108MHz_clk_wiz_0_1 | u_clk_wiz_0/inst/clk_108MHz           |             9.3 |
| clk_108MHz_clk_wiz_0_1 | u_clk_wiz_0/inst/clk_108MHz_clk_wiz_0 |             9.3 |
| clk_in                 | clk_in                                |             8.0 |
| clkfbout_clk_wiz_0     | u_clk_wiz_0/inst/clkfbout_clk_wiz_0   |            40.0 |
| clkfbout_clk_wiz_0_1   | u_clk_wiz_0/inst/clkfbout_clk_wiz_0   |            40.0 |
| sys_clk_pin            | clk_in                                |             8.0 |
+------------------------+---------------------------------------+-----------------+


3. Detailed Reports
-------------------

3.1 By Hierarchy
----------------

+------------------+-----------+
| Name             | Power (W) |
+------------------+-----------+
| top              |     0.202 |
|   u_clk_wiz_0    |     0.123 |
|     inst         |     0.123 |
|   u_frame_buffer |     0.068 |
|   u_resync       |    <0.001 |
|   u_ssd_driver   |    <0.001 |
|   u_user_logic   |     0.002 |
|     u_px_bus     |     0.002 |
|   u_vga_control  |     0.001 |
+------------------+-----------+


