Vivado Simulator 2015.2
Copyright 1986-1999, 2001-2015 Xilinx, Inc. All Rights Reserved.
Running: /opt/Xilinx/Vivado/2015.2/bin/unwrapped/lnx64.o/xelab -wto ecca9545e6d44959bcb21e36e6d4b9b4 --debug typical --relax --mt 8 -L xil_defaultlib -L unisims_ver -L unimacro_ver -L secureip --snapshot tb_behav xil_defaultlib.tb xil_defaultlib.glbl -log elaborate.log 
Using 8 slave threads.
Starting static elaboration
Completed static elaboration
Starting simulation data flow analysis
WARNING: [XSIM 43-4099] "/afs/inf.ed.ac.uk/user/s13/s1353184/Desktop/CD/prac3/prac3_1/prac3_1.srcs/sources_1/imports/src/frame_buffer.v" Line 21. Module frame_buffer_default doesn't have a timescale but at least one module in design has a timescale.
WARNING: [XSIM 43-4099] "/afs/inf.ed.ac.uk/user/s13/s1353184/Desktop/CD/prac3/prac3_1/prac3_1.srcs/sources_1/imports/src/frame_buffer.v" Line 21. Module frame_buffer_default doesn't have a timescale but at least one module in design has a timescale.
Completed simulation data flow analysis
Time Resolution for simulation is 1ps
Compiling module xil_defaultlib.px_bus
Compiling module xil_defaultlib.user_logic
Compiling module xil_defaultlib.vga_control
Compiling module xil_defaultlib.frame_buffer_default
Compiling module xil_defaultlib.ssd_driver
Compiling module xil_defaultlib.resync
Compiling module unisims_ver.IBUF
Compiling module unisims_ver.MMCME2_ADV(CLKFBOUT_MULT_F=40.5,...
Compiling module unisims_ver.BUFG
Compiling module xil_defaultlib.clk_wiz_0_clk_wiz
Compiling module xil_defaultlib.clk_wiz_0
Compiling module xil_defaultlib.top
Compiling module xil_defaultlib.tb
Compiling module xil_defaultlib.glbl
Built simulation snapshot tb_behav
