Design Route Status
                                               :      # nets :
   ------------------------------------------- : ----------- :
   # of logical nets.......................... :         597 :
       # of nets not needing routing.......... :         210 :
           # of internally routed nets........ :         204 :
           # of nets with no loads............ :           6 :
       # of routable nets..................... :         387 :
           # of fully routed nets............. :         387 :
       # of nets with routing errors.......... :           0 :
   ------------------------------------------- : ----------- :

